{
  "project_info": {
    "project_number": "448849724740",
    "firebase_url": "https://bmpcustomer-2f1fd.firebaseio.com",
    "project_id": "bmpcustomer-2f1fd",
    "storage_bucket": "bmpcustomer-2f1fd.appspot.com"
  },
  "client": [
    {
      "client_info": {
        "mobilesdk_app_id": "1:448849724740:android:935f680fd05b56c0",
        "android_client_info": {
          "package_name": "com.m_intellect.parkandgo1"
        }
      },
      "oauth_client": [
        {
          "client_id": "448849724740-09hjnf760ikpb1kj2u1qtu6mubsb0031.apps.googleusercontent.com",
          "client_type": 3
        }
      ],
      "api_key": [
        {
          "current_key": "AIzaSyABW0oSXxKuUVaqv2xBkhXSoofKNJRXTB8"
        }
      ],
      "services": {
        "analytics_service": {
          "status": 1
        },
        "appinvite_service": {
          "status": 1,
          "other_platform_oauth_client": []
        },
        "ads_service": {
          "status": 2
        }
      }
    },
    {
      "client_info": {
        "mobilesdk_app_id": "1:448849724740:android:87c6603c0a3e339e",
        "android_client_info": {
          "package_name": "com.m_intellect.parkingattendant"
        }
      },
      "oauth_client": [
        {
          "client_id": "448849724740-09hjnf760ikpb1kj2u1qtu6mubsb0031.apps.googleusercontent.com",
          "client_type": 3
        }
      ],
      "api_key": [
        {
          "current_key": "AIzaSyABW0oSXxKuUVaqv2xBkhXSoofKNJRXTB8"
        }
      ],
      "services": {
        "analytics_service": {
          "status": 1
        },
        "appinvite_service": {
          "status": 1,
          "other_platform_oauth_client": []
        },
        "ads_service": {
          "status": 2
        }
      }
    }
  ],
  "configuration_version": "1"
}